[
  {
    "name": "Ametista",
    "logo": "ametista_logo.png",
    "clothes": [
      {
        "name": "Blusa Amarela",
        "image": "blusa_vermelha.png",
        "price": 25.0,
        "description": "Lorem ipsum dolor sit amet, consectetur adipiscing elit, sed do eiusmod tempor incididunt ut labore et dolore magna aliqua. Ut enim ad minim veniam, quis nostrud exercitation ullamco laboris nisi ut aliquip ex ea commodo consequat.",
        "tags": ["Integer", "libero", "eros", "hendrerit", "sed"],
        "material": "",
        "size": "",
        "color": ""
      },
      {
        "name": "Blusa Vermelha",
        "image": "blusa_vermelha.png",
        "price": 21.2,
        "description": "Lorem Ipsum...",
        "tags": ["Integer", "libero", "eros", "hendrerit", "sed"],
        "material": "",
        "size": "",
        "color": ""
      },
      {
        "name": "Blusa Sem Cor",
        "image": "blusa_sem_cor.png",
        "price": 999.99,
        "description": "Lorem ipsum dolor sit amet, consectetur adipiscing elit, sed do eiusmod tempor incididunt ut labore et dolore magna aliqua. Ut enim ad minim veniam, quis nostrud exercitation ullamco laboris nisi ut aliquip ex ea commodo consequat.",
        "tags": ["Integer", "libero", "eros", "hendrerit", "sed"],
        "material": "",
        "size": "",
        "color": ""
      },
      {
        "name": "Calça Muito Louca!!!!!!",
        "image": "blusa_vermelha.png",
        "price": 0.00001,
        "description": "Lorem Ipsum...",
        "tags": ["Integer", "libero", "eros", "hendrerit", "sed"],
        "material": "",
        "size": "",
        "color": ""
      }
    ]
  },
  {
    "name": "Nekko Shop",
    "logo": "nekko_logo.png",
    "clothes": [
      {
        "name": "Blusa Amarela",
        "image": "blusa_vermelha.png",
        "price": 25.0,
        "description": "Lorem Ipsum...",
        "tags": ["Integer", "libero", "eros", "hendrerit", "sed"],
        "material": "",
        "size": "",
        "color": ""
      },
      {
        "name": "Blusa Vermelha",
        "image": "blusa_vermelha.png",
        "price": 21.2,
        "description": "Lorem Ipsum...",
        "tags": ["Integer", "libero", "eros", "hendrerit", "sed"],
        "material": "",
        "size": "",
        "color": ""
      },
      {
        "name": "Blusa Sem Cor",
        "image": "blusa_sem_cor.png",
        "price": 999.99,
        "description": "Lorem Ipsum...",
        "tags": ["Integer", "libero", "eros", "hendrerit", "sed"],
        "material": "",
        "size": "",
        "color": ""
      },
      {
        "name": "Calça Muito Louca!!!!!!",
        "image": "blusa_vermelha.png",
        "price": 0.00001,
        "description": "Lorem Ipsum...",
        "tags": ["Integer", "libero", "eros", "hendrerit", "sed"],
        "material": "",
        "size": "",
        "color": ""
      }
    ]
  }
]
